Tidy Modeling with R
…
lm_fit <- lm(Sale_Price ~ ., data = ames_train_prepped)

(2) Explore the model summary and coefficients using broom

broom::glance(lm_fit)

## # A tibble: 1 x 12
##   r.squared adj.r.squared  sigma statistic p.value    df logLik    AIC    BIC
##       <dbl>         <dbl>  <dbl>     <dbl>   <dbl> <dbl>  <dbl>  <dbl>  <dbl>
## 1     0.822         0.816 0.0757      140.       0    70  2592. -5040. -4630.
## #  with 3 more variables: deviance <dbl>, df.residual <int>, nobs <int>

tidy(lm_fit)

## # A tibble: 71 x 5
##    term                             estimate std.error statistic   p.value
##    <chr>                               <dbl>     <dbl>     <dbl>     <dbl>
##  1 (Intercept)                     -0.531     0.296      -1.79   7.32e-  2
##  2 Gr_Liv_Area                      0.648     0.0161     40.3    1.46e-264
##  3 Year_Built                       0.00194   0.000139   13.9    2.69e- 42
##  4 Neighborhood_College_Creek      -0.0898    0.0332     -2.71   6.83e-  3
##  5 Neighborhood_Old_Town           -0.0516    0.0129     -4.01   6.20e-  5
##  6 Neighborhood_Edwards            -0.153     0.0274     -5.57   2.91e-  8
##  7 Neighborhood_Somerset            0.0364    0.0189      1.92   5.50e-  2
##  8 Neighborhood_Northridge_Heights  0.0984    0.0272      3.61   3.10e-  4
##  9 Neighborhood_Gilbert             0.000728  0.0219      0.0333 9.73e-  1
## 10 Neighborhood_Sawyer             -0.156     0.0263     -5.93   3.59e-  9
## #  with 61 more rows
…
